module gitlab.com/gitlab-org/security-products/analyzers/spotbugs/v2

require (
	github.com/logrusorgru/aurora v0.0.0-20181002194514-a7b3b318ed4e
	github.com/stretchr/testify v1.3.0
	github.com/termie/go-shutil v0.0.0-20140729215957-bcacb06fecae
	github.com/urfave/cli v1.20.0
	gitlab.com/gitlab-org/security-products/analyzers/common/v2 v2.6.1
)

go 1.13
